Brief Analysis of Tagu’s 2025 Data
…
Warning: The ESS has been capped to avoid unstable estimates.
Warning: The ESS has been capped to avoid unstable estimates.
Warning: The ESS has been capped to avoid unstable estimates.
Warning: The ESS has been capped to avoid unstable estimates.
Warning: The ESS has been capped to avoid unstable estimates.
Warning: The ESS has been capped to avoid unstable estimates.
Warning: The ESS has been capped to avoid unstable estimates.
Warning: The ESS has been capped to avoid unstable estimates.
Warning: The ESS has been capped to avoid unstable estimates.
Warning: The ESS has been capped to avoid unstable estimates.
Warning: The ESS has been capped to avoid unstable estimates.
Warning: The ESS has been capped to avoid unstable estimates.
Warning: The ESS has been capped to avoid unstable estimates.

# A tibble: 262,073 × 10
   variable        mean   median      sd    mad       q5      q95  rhat ess_bulk
   <chr>          <dbl>    <dbl>   <dbl>  <dbl>    <dbl>    <dbl> <dbl>    <dbl>
 1 lp__        -8.15e+4 -8.15e+4 44.0    0      -8.15e+4 -8.14e+4 1.01      117.
 2 b_a[1]      -8.20e-2 -8.34e-2  0.0283 0.0302 -1.27e-1 -3.68e-2 1.02      383.
 3 b_a[2]       1.43e-1  1.43e-1  0.0200 0.0200  1.1 e-1  1.75e-1 1.01      356.
 4 b_a[3]       6.63e-2  6.50e-2  0.0329 0.0328  1.48e-2  1.22e-1 1.01      399.
 5 b_stick[1]   6.74e-1  6.74e-1  0.0459 0.0445  5.96e-1  7.49e-1 1.00      417.
 6 b_stick[2]   4.52e-1  4.50e-1  0.0292 0.0274  4.09e-1  5.02e-1 1.01      310.
 7 b_stick[3]   4.46e-1  4.47e-1  0.0322 0.0311  3.90e-1  5.01e-1 1.00      430.
 8 rho_delta[…  1.91e+1  1.91e+1  0.415  0.445   1.85e+1  1.98e+1 1.00      415.
 9 rho_delta[…  2.32e+1  2.32e+1  0.393  0.445   2.26e+1  2.38e+1 1.00      415.
10 rho_delta[…  2.21e+1  2.21e+1  0.425  0.445   2.14e+1  2.28e+1 0.999     393.
# ℹ 262,063 more rows
# ℹ 1 more variable: ess_tail <dbl>
…
